module gitlab.com/iwaseatenbyagrue/gotp

go 1.16

require (
	github.com/fsnotify/fsnotify v1.4.9 // indirect
	github.com/magiconair/properties v1.8.4 // indirect
	github.com/mitchellh/go-homedir v1.1.0 // indirect
	github.com/mitchellh/mapstructure v1.4.1 // indirect
	github.com/pelletier/go-toml v1.8.1 // indirect
	github.com/spf13/afero v1.5.1 // indirect
	github.com/spf13/cast v1.3.1 // indirect
	github.com/spf13/cobra v1.1.3 // indirect
	github.com/spf13/jwalterweatherman v1.1.0 // indirect
	github.com/spf13/viper v1.7.1 // indirect
	golang.org/x/sys v0.0.0-20210227040730-b0d1d43c014d // indirect
	golang.org/x/text v0.3.5 // indirect
	gopkg.in/ini.v1 v1.62.0 // indirect
)
